{
	"for_gathering_tweets": {
		"hashtags": ["kde"],
		"key_words": ["kde", "plasma"],
		"languages": ["en"],
		"exclude_replies": true,
		"exclude_retweets": true,
		"from": [],
		"to": [],
		"context": []
	},
	"account_statistics": ["kdecommunity", "Krita_Painting"],
	"public_metrics_only": { "usernames": ["akademy", "Krita_Painting"] },
	"reference": "https://developer.twitter.com/en/docs/twitter-api/tweets/search/integrate/build-a-query",
	"since_id": "1364875997699522562",
	"mentions_since_id": "1369720064350457856",
	"tweets_since_id": "1369562708044025859"
}
