{
	"kde": [
		{
			"subreddit": "Slovakia",
			"title": "N\u00fadzov\u00fd stav? Lockdown? Kde?",
			"id": "lsyi1i",
			"author": "Available-Ad-4553"
		},
		{
			"subreddit": "linux",
			"title": "Now KDE Plasma also supports transparent panels getting opaque when a window is maximized!",
			"id": "ly8beo",
			"author": "veggero"
		},
		{
			"subreddit": "unixporn",
			"title": "[KDE/Plasma] Easy on the eyes gruvbox theme",
			"id": "lydglv",
			"author": "Shaggy96Fi"
		},
		{
			"subreddit": "unixporn",
			"title": "[KDE] A rice for my dad",
			"id": "lu0mvp",
			"author": "Snowyxxx-"
		},
		{
			"subreddit": "ManjaroLinux",
			"title": "Using KDE like Gnome",
			"id": "lwo357",
			"author": "No_Insect5759"
		},
		{
			"subreddit": "kde",
			"title": "KDE Plasma 5.22: Adaptive Transparency!",
			"id": "ly7xii",
			"author": "veggero"
		},
		{
			"subreddit": "kde",
			"title": "Want to create a KDE App? Here's a tour of the tutorial to Kirigami, the framework to create convergent apps!",
			"id": "lwuyt7",
			"author": "veggero"
		},
		{
			"subreddit": "kde",
			"title": "KDE Plasma 5.21.2, Bugfix Release for March",
			"id": "lw8wdm",
			"author": "acheronuk"
		},
		{
			"subreddit": "ManjaroLinux",
			"title": "After update, KDE doesn't start, problem with qt",
			"id": "lurv1d",
			"author": "Zephyr00FR"
		},
		{
			"subreddit": "Duklock",
			"title": "REUPLOAD:Znova sem d\u00e1v\u00e1m sv\u00e9 video kde jsem vydr\u017eel cel\u00e9 14 minut dlouh\u00e9 #Me v planku (video zrychleno 3x) Toto video mi dalo velmi zabrat a bylo pro m\u011b velmi n\u00e1ro\u010dn\u00e9 a velmi bych ocenil kdyby to Du\u0161an vid\u011bl tak se pros\u00edm nezlobte a douf\u00e1m \u017ee to pochop\u00edte D\u00edky",
			"id": "lxg1am",
			"author": "Hraccz22"
		},
		{
			"subreddit": "kde",
			"title": "How can I get rounded panel like this official kde 5.21 video without install any extra files ?",
			"id": "lvvcrg",
			"author": "Bu_Hasan"
		},
		{
			"subreddit": "unixporn",
			"title": "[Plasma] Comfy KDE.",
			"id": "lvxili",
			"author": "virajag007"
		},
		{
			"subreddit": "kde",
			"title": "This week in KDE: a little bit of everything \u2013 Adventures in Linux and KDE",
			"id": "lth05z",
			"author": "Modelmat"
		},
		{
			"subreddit": "linuxmemes",
			"title": "When you use KDE + Wayland. During the next update:",
			"id": "lv1d99",
			"author": "SlyJisatsu"
		},
		{
			"subreddit": "unixporn",
			"title": "[KDE Plasma] Just another macOS clone.",
			"id": "lupifz",
			"author": "KodiZX"
		},
		{
			"subreddit": "ManjaroLinux",
			"title": "How can I make my bottom panel rounded like this official kde 5.21 video ?",
			"id": "lvv43u",
			"author": "Bu_Hasan"
		},
		{
			"subreddit": "xfce",
			"title": "After exploring everything from gnome, awesome, openbox, kde ive finally settled to xfce.",
			"id": "lt6ew6",
			"author": "NoCSForYou"
		},
		{
			"subreddit": "i3wm",
			"title": "What can cause this black bar, and also why it changes the background to splash screen / login screen? I3gaps, Arch Linux, Latte Dock, KDE Plasma. It works fine with KDE Plasma X11, it is only like this with i3. If I move the Latte dock to the top, it reappears there. The black bar I mean.",
			"id": "ltmfz8",
			"author": "Aztekee"
		},
		{
			"subreddit": "linuxmasterrace",
			"title": "KDE Uwon",
			"id": "lxt82v",
			"author": "muff2"
		},
		{
			"subreddit": "unixporn",
			"title": "[KDE] Gruvbox :)",
			"id": "luv03z",
			"author": "ItsSolar_"
		},
		{
			"subreddit": "FindMeADistro",
			"title": "Considering moving from Ubuntu to Mint. (beginner) Main differences ubuntu, mint, (kde neon), any other suggestions?",
			"id": "lst7mt",
			"author": "cactusrescue"
		},
		{
			"subreddit": "pop_os",
			"title": "Pop os vs Manjaro kde?? I will install kde(if i don't like gnome)in pop os too. I have w10, 4gb ram, ryzen 3 3200u, vega 3 gpu.",
			"id": "lu5lu9",
			"author": "Mando_roasts_doc"
		},
		{
			"subreddit": "linuxmint",
			"title": "This is the best look I've achieved with mint xfce. After messing KDE and uninstalling it, I'm pretty proud of what i've achieved. Xfce can be quite beautiful with some tweaks.",
			"id": "lu2gb8",
			"author": "pelopidas190e"
		},
		{
			"subreddit": "ManjaroLinux",
			"title": "What program should I use for this task? (Manjaro KDE)",
			"id": "lwji1a",
			"author": "rampitup55"
		},
		{
			"subreddit": "linux4noobs",
			"title": "got error. Manjaro KDE Plasma. What can i do?",
			"id": "lw3q73",
			"author": "samyak_mdhr"
		},
		{
			"subreddit": "unixporn",
			"title": "[KDE] New rice, simple and stylish",
			"id": "lxv05z",
			"author": "LordKreias"
		},
		{
			"subreddit": "UsabilityPorn",
			"title": "[KDE Plasma] I reset my PC again... Anyway, I tried making an even prettier build. Inspired by Garuda Linux Dr460nized. Actual distribution is openSUSE Tumbleweed.",
			"id": "lv7e7e",
			"author": "supertest156"
		},
		{
			"subreddit": "betterunixporn",
			"title": "[KDE Plasma] Otto Plasma",
			"id": "lwbvc5",
			"author": "jom4d4"
		},
		{
			"subreddit": "linux4noobs",
			"title": "Considering moving from Ubuntu to Mint. (beginner) Main differences ubuntu, mint, (kde neon)?",
			"id": "lst6q2",
			"author": "cactusrescue"
		},
		{
			"subreddit": "betterunixporn",
			"title": "[KDE Plasma] My first rice post",
			"id": "lt3m06",
			"author": "Gergoo007"
		},
		{
			"subreddit": "UsabilityPorn",
			"title": "[KDE] Nokia all the way",
			"id": "lvf4sa",
			"author": "tokujin"
		},
		{
			"subreddit": "unixporn",
			"title": "[KDE Plasma] Stacking WM's look good too! (Wallpaper is a GIF)",
			"id": "lwqfu2",
			"author": "SimPilotAdamT"
		},
		{
			"subreddit": "archlinux",
			"title": "Question: how do Packagekit front-ends such as GNOME Software or KDE Discover check for updates?",
			"id": "lwy1tg",
			"author": "SoilpH96"
		},
		{
			"subreddit": "desktops",
			"title": "[KDE] A rice for my dad",
			"id": "lu0nfc",
			"author": "Snowyxxx-"
		},
		{
			"subreddit": "kde",
			"title": "KDE trying to connect to fast-dot-wistia-dot-com?",
			"id": "lwwl8b",
			"author": "theamazingrand0"
		},
		{
			"subreddit": "Slovakia",
			"title": "Kde rob\u00edme v lockdowne chybu? Polovica \u00cdrov sa nest\u00fdka s nik\u00fdm, Britom ide v karant\u00e9ne aj pln\u00e1 mzda",
			"id": "ltjwms",
			"author": "Piccolito"
		},
		{
			"subreddit": "fifqo",
			"title": "U\u017e vieme kde b\u00fdva",
			"id": "ltued0",
			"author": "rebbit_2007"
		},
		{
			"subreddit": "betterunixporn",
			"title": "Kde customisation for better usage",
			"id": "lxccec",
			"author": "amrock__"
		},
		{
			"subreddit": "kde",
			"title": "Netrunner | A Finely Tuned KDE Desktop",
			"id": "luivec",
			"author": "hexydes"
		},
		{
			"subreddit": "FindMeADistro",
			"title": "Opensuse Tumbleweed vs Fedora 33 KDE Spin",
			"id": "luiikg",
			"author": "kiraitachi"
		},
		{
			"subreddit": "Fedora",
			"title": "I want to switch to Fedora KDE but I wanted to know if it is as well maintained as the main gnome version.",
			"id": "lumlyy",
			"author": "HAHACOW04"
		},
		{
			"subreddit": "ManjaroLinux",
			"title": "Manjaro KDE eats up my laptop battery.",
			"id": "lwxvdg",
			"author": "CandyAndACurrantBun"
		},
		{
			"subreddit": "ManjaroLinux",
			"title": "What to think about when switching from i3 to KDE?",
			"id": "lvm6xp",
			"author": "Trollw00t"
		},
		{
			"subreddit": "linuxmasterrace",
			"title": "Got KDE Plasma 5.21 running!!! i still have annoying black boxes everywhere though, so my quest isn't complete how do I fix these black boxes aaa",
			"id": "lxxukv",
			"author": "blappit3003"
		},
		{
			"subreddit": "kde",
			"title": "WHY do I need to aim for 1pixel border to resize the window in KDE?!",
			"id": "lsx3bb",
			"author": "illevens"
		},
		{
			"subreddit": "kde",
			"title": "How do I disable middle click paste on KDE",
			"id": "lwwq0p",
			"author": "merul_is_awesome"
		},
		{
			"subreddit": "kde",
			"title": "Hindi Language in Plasma and KDE applications",
			"id": "lwmw43",
			"author": "LordRishav"
		},
		{
			"subreddit": "kde",
			"title": "Creating your own KDE Plasma Theme? Part 3 of my guide is out!",
			"id": "lstomp",
			"author": "veggero"
		},
		{
			"subreddit": "debian",
			"title": "Debian Bullseye +KDE (task-kde-desktop ): Is it safe to uninstall LibreOffice?",
			"id": "lvyh9i",
			"author": "Meretrelle"
		},
		{
			"subreddit": "kdeneon",
			"title": "slow start after timeshift restore in kde neon",
			"id": "lx23id",
			"author": "Ok-Needleworker-7969"
		},
		{
			"subreddit": "kde",
			"title": "The KDE title bar needs to get a reworking",
			"id": "lydrni",
			"author": "No_Conference4756"
		},
		{
			"subreddit": "linux4noobs",
			"title": "Application not showing up in the KDE menu after creating a .desktop file",
			"id": "lu36zu",
			"author": "samobon"
		},
		{
			"subreddit": "linuxmasterrace",
			"title": "My first rice (KDE Plasma, all theming info in the Konsole window, wallpaper is a GIF in the comments)",
			"id": "lws4wr",
			"author": "SimPilotAdamT"
		},
		{
			"subreddit": "linux4noobs",
			"title": "Why is Fedora/KDE so Utterly Fucking Worthless?",
			"id": "lv93pi",
			"author": "DisplayDome"
		},
		{
			"subreddit": "EXWM",
			"title": "How to restore the normal appearance of GTK and KDE applications in EXWM",
			"id": "lxt7ul",
			"author": "vfclists"
		},
		{
			"subreddit": "kde",
			"title": "Konfsave: my own take on saving/switching KDE configurations",
			"id": "lvol5d",
			"author": "selplacei"
		},
		{
			"subreddit": "archlinux",
			"title": "KDE + Nvidia tearing problems",
			"id": "lvrjrg",
			"author": "linuxuser2021"
		},
		{
			"subreddit": "archlinux",
			"title": "Weird arch/kde behaviour",
			"id": "lv88co",
			"author": "gonnabedeadsoon"
		},
		{
			"subreddit": "QtFramework",
			"title": "QT Creator made apps don't follow kde style",
			"id": "lvos9x",
			"author": "FocalFossa0997"
		},
		{
			"subreddit": "DistroHopping",
			"title": "Looking for a secure, up-to-date (but stable), minimal pre-installed software, KDE-themed, and truly privacy respecting distro (e.g. not Deepin, Zorin, Ubuntu, Manjaro) to host the Whonix VMs (Tor), and to run servers and play video games (NVIDIA)",
			"id": "ltx02d",
			"author": "MOD3RN_GLITCH"
		},
		{
			"subreddit": "linuxquestions",
			"title": "Which KDE Plasma environment should I use?",
			"id": "lvnjux",
			"author": "arcbarkzap"
		},
		{
			"subreddit": "linux",
			"title": "This week in KDE: a little bit of everything",
			"id": "ltio7v",
			"author": "KugelKurt"
		},
		{
			"subreddit": "kde",
			"title": "Script doesn't start when i added script to autostart on KDE Plasma",
			"id": "lwertm",
			"author": "ksckaan1"
		},
		{
			"subreddit": "pop_os",
			"title": "My Pop!_OS customization (KDE)",
			"id": "lx16c7",
			"author": "Alyxson_"
		},
		{
			"subreddit": "ManjaroLinux",
			"title": "KDE plasma window buttons look weird on pamac",
			"id": "lum3nd",
			"author": "s_basu"
		},
		{
			"subreddit": "MenTy",
			"title": "MenT: Koup\u00ed si zlatou slepici a vystav\u00ed si ji na poli\u010dce. Taky MenT: D\u00e1 ji na m\u00edsto kde celou dobu nejde vid\u011bt",
			"id": "lx091u",
			"author": "T0biasCZE"
		},
		{
			"subreddit": "gnome",
			"title": "Does anyone know how to stop this authenticator from blocking the whole screen. I recently switched from KDE and this is very annoying, not being able to minimize this.",
			"id": "ly9y2i",
			"author": "VanillaBase1lb"
		},
		{
			"subreddit": "ManjaroLinux",
			"title": "Manjaro KDE on old laptop",
			"id": "lx2epv",
			"author": "Sheepster7"
		},
		{
			"subreddit": "linux_gaming",
			"title": "KDE Neon i386 drivers",
			"id": "lu763d",
			"author": "FancyTactics"
		},
		{
			"subreddit": "linuxmint",
			"title": "KDE on Linux Mint, Is it as stable as Cinnamon?",
			"id": "ludlwg",
			"author": "CumBucketChampion"
		},
		{
			"subreddit": "GarudaLinux",
			"title": "Garuda Dr460nized vs KDE Ultimate edition?",
			"id": "lvup6x",
			"author": "darkslayerdg"
		},
		{
			"subreddit": "Ubuntu",
			"title": "KDE is very slow",
			"id": "ltfx4e",
			"author": "wished_you"
		},
		{
			"subreddit": "linux",
			"title": "KDE Plasma 5.21.2, Bugfix Release for March",
			"id": "lwcykp",
			"author": "ChristophCullmann"
		},
		{
			"subreddit": "kde",
			"title": "Wayland and KDE: Any good experiences?",
			"id": "lyftqm",
			"author": "lcornell6"
		},
		{
			"subreddit": "kde",
			"title": "Documentation Improvements in KDE",
			"id": "ltbvpd",
			"author": "ognarb1"
		},
		{
			"subreddit": "kde",
			"title": "How can I disable \"switch tabs on hover\" with the new kde application launcher?",
			"id": "lvqrp5",
			"author": "TONKAHANAH"
		},
		{
			"subreddit": "linux4noobs",
			"title": "Attempting to boot KDE Neon or MX Linux (KDE) from a USB gives me this Kernel error. Every other distro seems to work fine.",
			"id": "lxxbvd",
			"author": "Tobycat7"
		},
		{
			"subreddit": "Duklock",
			"title": "A sme zase tam kde sme boli",
			"id": "lye4xj",
			"author": "ChodDoPixi69"
		},
		{
			"subreddit": "GarudaLinux",
			"title": "Why have the animations got slower in KDE dragonized?",
			"id": "lu98lf",
			"author": "ZingyTomato69"
		},
		{
			"subreddit": "linux4noobs",
			"title": "Manjaro KDE high memory usage",
			"id": "lwucyw",
			"author": "TonnyGameDev"
		},
		{
			"subreddit": "ManjaroLinux",
			"title": "Can someone please suggest some good blur/translucent themes, i cant decide what to pick for my kde",
			"id": "lvfn7m",
			"author": "shivanshx365"
		},
		{
			"subreddit": "ManjaroLinux",
			"title": "Trying to install Qtile by replacing KWin in KDE Plasma. But it seems not to be working.",
			"id": "lua63u",
			"author": "eXoRainbow"
		},
		{
			"subreddit": "kde",
			"title": "Facing this weird bug whenever open my laptop lid from sleep . I m facing this issue since kernal 5.9 . I thought new kde update will fix this issue but sadly issue is still there",
			"id": "lw341w",
			"author": "ritik_20"
		},
		{
			"subreddit": "linuxquestions",
			"title": "Is There Something Like Trinity For KDE 4?",
			"id": "lwy41f",
			"author": "Delicious_Ad3063"
		},
		{
			"subreddit": "kde",
			"title": "Just updated KDE and restarted and everything got completely reset and messed up",
			"id": "lujpti",
			"author": "hawkeye315"
		},
		{
			"subreddit": "firefox",
			"title": "Twitter login page - webrender is off - manjaro kde with latest update",
			"id": "lwcwb6",
			"author": "markedthree"
		},
		{
			"subreddit": "kde",
			"title": "Chromium apps doesn't follow system font settings in Manjaro KDE",
			"id": "lsuy3b",
			"author": "sevindi"
		},
		{
			"subreddit": "linuxquestions",
			"title": "Is there a way to create a Windows-10/KDE-like task bar in LXDE/LXQT?",
			"id": "lt15ra",
			"author": "OpenSusi"
		},
		{
			"subreddit": "kde",
			"title": "Mond clock alternative for KDE?",
			"id": "lt6jff",
			"author": "Snowyxxx-"
		},
		{
			"subreddit": "CzechCloud",
			"title": "Kde jsou ty \u010dasy kdy se d\u011bti st\u0159\u00edhali podle youtuber\u016f. Jsem r\u00e1d Cloude \u017ee u tv\u00fdch div\u00e1k\u016f to po\u0159\u00e1d p\u0159etrv\u00e1v\u00e1. Nem\u00e1m nic proti tob\u011b ani div\u00e1k\u016fm",
			"id": "lxtnkx",
			"author": "True-Anteater-9990"
		},
		{
			"subreddit": "linuxquestions",
			"title": "Just installed Artix with KDE, but can't get my bluetooth headphones to connect :( plz help",
			"id": "lurg4m",
			"author": "metadududu"
		},
		{
			"subreddit": "ManjaroLinux",
			"title": "Command to make Firefox always start in full screen mode? (Manjaro KDE)",
			"id": "lvc5kv",
			"author": "rampitup55"
		},
		{
			"subreddit": "ManjaroLinux",
			"title": "Fans ramp up to the max after waking from sleep, Thinkpad T460 running Manjaro KDE 5.21",
			"id": "lvdg4v",
			"author": "omarrr994"
		},
		{
			"subreddit": "davinciresolve",
			"title": "\"Unsupported GPU Processing Mode\" on KDE Neon",
			"id": "ltix1t",
			"author": "RUvlad1"
		},
		{
			"subreddit": "YOUGETTOBEAMOD",
			"title": "The KDE desktop environment.",
			"id": "lxmp7a",
			"author": "PhilTheComputer"
		},
		{
			"subreddit": "Fedora",
			"title": "\"Unable to create io-slave. klauncher said: Error loading '/usr/lib64/qt5/plugins/kf5/kio/file.so'.\" when trying to open Dolphin on a newly installed Fedora 33 KDE",
			"id": "lx8gp8",
			"author": "AgreeableLandscape3"
		},
		{
			"subreddit": "Ubuntu",
			"title": "The folder ~/.kde/share/kde4 is missing in 20.04 - I can't add a number of addons to Dolphin & Krusader w/o this folder",
			"id": "ly7ubi",
			"author": "KDE_Fan"
		},
		{
			"subreddit": "kde",
			"title": "Ram\u00f3n Miranda painted a landscape live at KDE's FOSDEM booth. Here is the video of that session in which he demonstrates techniques and the new set of impressionist brushes he designed for Krita.",
			"id": "lwzh5y",
			"author": "Bro666"
		},
		{
			"subreddit": "ManjaroLinux",
			"title": "Update of KDE [New release]",
			"id": "lvcecd",
			"author": "_Nafi_"
		},
		{
			"subreddit": "Fedora",
			"title": "How to connect to a wireless display (my Smart TV) with fedora kde",
			"id": "lu937a",
			"author": "Mnghiane"
		}
	],
	"kde,plasma": [
		{
			"subreddit": "kde",
			"title": "KDE Plasma 5.21.2, Bugfix Release for March",
			"id": "lw8wdm",
			"author": "acheronuk"
		},
		{
			"subreddit": "unixporn",
			"title": "[KDE/Plasma] Easy on the eyes gruvbox theme",
			"id": "lydglv",
			"author": "Shaggy96Fi"
		},
		{
			"subreddit": "kde",
			"title": "KDE Plasma 5.22: Adaptive Transparency!",
			"id": "ly7xii",
			"author": "veggero"
		},
		{
			"subreddit": "linux",
			"title": "Now KDE Plasma also supports transparent panels getting opaque when a window is maximized!",
			"id": "ly8beo",
			"author": "veggero"
		},
		{
			"subreddit": "i3wm",
			"title": "What can cause this black bar, and also why it changes the background to splash screen / login screen? I3gaps, Arch Linux, Latte Dock, KDE Plasma. It works fine with KDE Plasma X11, it is only like this with i3. If I move the Latte dock to the top, it reappears there. The black bar I mean.",
			"id": "ltmfz8",
			"author": "Aztekee"
		},
		{
			"subreddit": "unixporn",
			"title": "[KDE Plasma] Just another macOS clone.",
			"id": "lupifz",
			"author": "KodiZX"
		},
		{
			"subreddit": "betterunixporn",
			"title": "[KDE Plasma] Otto Plasma",
			"id": "lwbvc5",
			"author": "jom4d4"
		},
		{
			"subreddit": "betterunixporn",
			"title": "[KDE Plasma] My first rice post",
			"id": "lt3m06",
			"author": "Gergoo007"
		},
		{
			"subreddit": "linux4noobs",
			"title": "got error. Manjaro KDE Plasma. What can i do?",
			"id": "lw3q73",
			"author": "samyak_mdhr"
		},
		{
			"subreddit": "UsabilityPorn",
			"title": "[KDE Plasma] I reset my PC again... Anyway, I tried making an even prettier build. Inspired by Garuda Linux Dr460nized. Actual distribution is openSUSE Tumbleweed.",
			"id": "lv7e7e",
			"author": "supertest156"
		},
		{
			"subreddit": "unixporn",
			"title": "[KDE Plasma] Stacking WM's look good too! (Wallpaper is a GIF)",
			"id": "lwqfu2",
			"author": "SimPilotAdamT"
		},
		{
			"subreddit": "kde",
			"title": "Creating your own KDE Plasma Theme? Part 3 of my guide is out!",
			"id": "lstomp",
			"author": "veggero"
		},
		{
			"subreddit": "linuxmasterrace",
			"title": "Got KDE Plasma 5.21 running!!! i still have annoying black boxes everywhere though, so my quest isn't complete how do I fix these black boxes aaa",
			"id": "lxxukv",
			"author": "blappit3003"
		},
		{
			"subreddit": "ManjaroLinux",
			"title": "KDE plasma window buttons look weird on pamac",
			"id": "lum3nd",
			"author": "s_basu"
		},
		{
			"subreddit": "ManjaroLinux",
			"title": "Trying to install Qtile by replacing KWin in KDE Plasma. But it seems not to be working.",
			"id": "lua63u",
			"author": "eXoRainbow"
		},
		{
			"subreddit": "linuxmasterrace",
			"title": "My first rice (KDE Plasma, all theming info in the Konsole window, wallpaper is a GIF in the comments)",
			"id": "lws4wr",
			"author": "SimPilotAdamT"
		},
		{
			"subreddit": "kde",
			"title": "Script doesn't start when i added script to autostart on KDE Plasma",
			"id": "lwertm",
			"author": "ksckaan1"
		},
		{
			"subreddit": "linuxquestions",
			"title": "Which KDE Plasma environment should I use?",
			"id": "lvnjux",
			"author": "arcbarkzap"
		},
		{
			"subreddit": "linux",
			"title": "KDE Plasma 5.21.2, Bugfix Release for March",
			"id": "lwcykp",
			"author": "ChristophCullmann"
		},
		{
			"subreddit": "archlinux",
			"title": "Bad trails in KDE Plasma",
			"id": "ly81v6",
			"author": "FFuuZZuu"
		},
		{
			"subreddit": "linuxquestions",
			"title": "will artix(openrc kde plasma) run faster than arch(systemd kde plasma)?",
			"id": "lur2pk",
			"author": "lukagotaku"
		},
		{
			"subreddit": "linuxhardware",
			"title": "KDE Plasma security concern on debian",
			"id": "ltp213",
			"author": "hypekk"
		},
		{
			"subreddit": "desktops",
			"title": "[Plasma]Decided to leave gnome for kde plasma, loving the battery life",
			"id": "lt09lt",
			"author": "RichardSilsa"
		},
		{
			"subreddit": "u_nextreleaseio",
			"title": "KDE Plasma 5.21.1, Bugfix Release for February",
			"id": "lt5467",
			"author": "nextreleaseio"
		},
		{
			"subreddit": "RichardsDesktopArchiv",
			"title": "[Plasma]Decided to leave gnome for kde plasma, loving the battery life",
			"id": "lt08cx",
			"author": "RichardSilsa"
		},
		{
			"subreddit": "kde",
			"title": "You can now save your Plasma configuration in an instant!",
			"id": "ltsnfc",
			"author": "haxguru"
		},
		{
			"subreddit": "pop_os",
			"title": "21 suggestions for a better Pop!_OS",
			"id": "lwa49h",
			"author": "dionatansimioni"
		},
		{
			"subreddit": "linux4noobs",
			"title": "Why is Fedora/KDE so Utterly Fucking Worthless?",
			"id": "lv93pi",
			"author": "DisplayDome"
		},
		{
			"subreddit": "linux",
			"title": "You can now save your Plasma configuration in an instant!",
			"id": "ltsmfz",
			"author": "haxguru"
		},
		{
			"subreddit": "linux_gaming",
			"title": "New Linux user's first impressions and experiences",
			"id": "ltb4nk",
			"author": "Ventem"
		},
		{
			"subreddit": "linux_gaming",
			"title": "Should I swith from GNOME",
			"id": "lvjv77",
			"author": "ROTOMEGA"
		},
		{
			"subreddit": "ManjaroLinux",
			"title": "What to think about when switching from i3 to KDE?",
			"id": "lvm6xp",
			"author": "Trollw00t"
		},
		{
			"subreddit": "linuxquestions",
			"title": "fstab entries causing LightDM to hate life",
			"id": "lulqam",
			"author": "thewaytonever"
		},
		{
			"subreddit": "archlinux",
			"title": "Graphical problems after the recent updates.",
			"id": "lxosc7",
			"author": "Perfect_spot"
		},
		{
			"subreddit": "kde",
			"title": "Weekly Screenshot Thread",
			"id": "lv1ley",
			"author": "AutoModerator"
		},
		{
			"subreddit": "archlinux",
			"title": "Arch is runnning extremely slow.",
			"id": "ly9cvl",
			"author": "FocalFossa0997"
		},
		{
			"subreddit": "archlinux",
			"title": "Arch Linux + Samsung G9 Odyssey Display Issue",
			"id": "lxojpp",
			"author": "Iras_G"
		},
		{
			"subreddit": "UsabilityPorn",
			"title": "What is your workflow with tiling window managers?",
			"id": "luz4k5",
			"author": "ak4rez"
		},
		{
			"subreddit": "EXWM",
			"title": "How to restore the normal appearance of GTK and KDE applications in EXWM",
			"id": "lxt7ul",
			"author": "vfclists"
		},
		{
			"subreddit": "elementaryos",
			"title": "How do I Uninstall Kubuntu?",
			"id": "lwulbu",
			"author": "drazraut"
		},
		{
			"subreddit": "linux4noobs",
			"title": "What DE should I use?",
			"id": "lug9qb",
			"author": "Jofly-YT"
		},
		{
			"subreddit": "firefox",
			"title": "Is there a way to force Firefox to respect system window controls theming without enabling system titlebar?",
			"id": "lvz4by",
			"author": "Cobbleking32486"
		},
		{
			"subreddit": "linux4noobs",
			"title": "Hmmm yes, I'm comming back to linux baby (but I need suggestions)",
			"id": "ltruo5",
			"author": "MauroTheCreator"
		},
		{
			"subreddit": "archlinux",
			"title": "day 2 on arch (coming from years on debian): very pleased! what next?",
			"id": "lwx9xv",
			"author": "jimi_hendrisk"
		},
		{
			"subreddit": "linuxquestions",
			"title": "Should I care about and vs intel for a linux machine?",
			"id": "ltykqb",
			"author": "Danubinmage64"
		},
		{
			"subreddit": "GalliumOS",
			"title": "Audio Problem",
			"id": "ltmocl",
			"author": "TheGermanStockmodel"
		},
		{
			"subreddit": "PINE64official",
			"title": "Pinephone USB-C Yubikey not Recognised",
			"id": "lsv15i",
			"author": "ColonelMcColonel"
		},
		{
			"subreddit": "kde",
			"title": "Difficulties reaching and triggering the sleep button with the new app launcher",
			"id": "lvxt0r",
			"author": "Froyok"
		},
		{
			"subreddit": "1Password",
			"title": "Cannot find the download for the Legacy Browser Extension",
			"id": "lxtrdt",
			"author": "Lightfire228"
		},
		{
			"subreddit": "linuxquestions",
			"title": "Mouse clicks stop working in the host system after using VirtualBox for a while",
			"id": "lx0pbh",
			"author": "reallygiantgrape"
		},
		{
			"subreddit": "kde",
			"title": "Plasma desktop crashes frequently",
			"id": "lw7c6z",
			"author": "DeathByChainsaw"
		},
		{
			"subreddit": "linuxquestions",
			"title": "Usb webcam not working",
			"id": "lxi12h",
			"author": "furkan1611"
		},
		{
			"subreddit": "buildapc",
			"title": "Would these specs be able to run Garry's Mod?",
			"id": "lssjy4",
			"author": "RowingN0ob"
		},
		{
			"subreddit": "FindMeADistro",
			"title": "What distro would be the best for someone experienced in Linux but would like to avoid the \"hardcore\" distros like Arch?",
			"id": "ltb7rq",
			"author": "LiterallyJohnny"
		},
		{
			"subreddit": "kde",
			"title": "Plasma window/applications rules being overridden",
			"id": "luq3f5",
			"author": "TallNerd87"
		},
		{
			"subreddit": "leagueoflinux",
			"title": "League does not start with wine-lol set as custom prefix",
			"id": "ly6pbu",
			"author": "CelldEon"
		},
		{
			"subreddit": "kde",
			"title": "How to disable Latte Dock only for a specific session?",
			"id": "lux365",
			"author": "Gianluca412"
		},
		{
			"subreddit": "archlinux",
			"title": "Strange behavior, Arch flickers after waking up",
			"id": "lvh8wk",
			"author": "Naito27"
		},
		{
			"subreddit": "linuxquestions",
			"title": "Just installed Artix with KDE, but can't get my bluetooth headphones to connect :( plz help",
			"id": "lurg4m",
			"author": "metadududu"
		},
		{
			"subreddit": "kde",
			"title": "Issues and questions regarding session restoration",
			"id": "lxrlgs",
			"author": "hqurve"
		},
		{
			"subreddit": "ManjaroLinux",
			"title": "Update of KDE [New release]",
			"id": "lvcecd",
			"author": "_Nafi_"
		},
		{
			"subreddit": "linuxquestions",
			"title": "UNLOCK Mouse Cursor from Steam Games (Proton/Remoteplay)",
			"id": "lw7tm0",
			"author": "ItsRogueRen"
		},
		{
			"subreddit": "kdeneon",
			"title": "Touchpad functions enable and double click",
			"id": "luo7xj",
			"author": "Beneficial-Disk8404"
		},
		{
			"subreddit": "kde",
			"title": "Unable to turn transparency/ translucency off, known bug or my mistake in configuration?",
			"id": "lvbh3b",
			"author": "Bassnetron"
		},
		{
			"subreddit": "kde",
			"title": "Window sizes not being remembered",
			"id": "lsvvcf",
			"author": "kyentei"
		},
		{
			"subreddit": "ManjaroLinux",
			"title": "Pamac not showing update",
			"id": "luw9wo",
			"author": "ImperatorPC"
		},
		{
			"subreddit": "pop_os",
			"title": "Screen flickering problem",
			"id": "lwchej",
			"author": "Dataanti"
		},
		{
			"subreddit": "kde",
			"title": "Virtual Desktop per Display",
			"id": "lwd8ml",
			"author": "oroColato"
		},
		{
			"subreddit": "kdeneon",
			"title": "Plasma crashes a lot",
			"id": "lyeimv",
			"author": "Enmk2"
		},
		{
			"subreddit": "techsupport",
			"title": "kali 2021.1 stuck on dragon logo. dual boot with windows 10",
			"id": "lyakaw",
			"author": "Lifegeeke"
		},
		{
			"subreddit": "linuxquestions",
			"title": "yum is just no there.",
			"id": "lwqbck",
			"author": "NameMarty"
		},
		{
			"subreddit": "Qubes",
			"title": "Would it be possible to create a \"gui vm\"?",
			"id": "lwelaw",
			"author": "Available_Collar"
		},
		{
			"subreddit": "linux_gaming",
			"title": "UNLOCK cursor from steam remoteplay",
			"id": "lvrtuw",
			"author": "ItsRogueRen"
		},
		{
			"subreddit": "kde",
			"title": "Switching default sound output",
			"id": "lv98dq",
			"author": "neuroloops"
		},
		{
			"subreddit": "linuxmint",
			"title": "cgroupv2 not fully supported yet, proceeding with partial confinement.",
			"id": "ltzgyn",
			"author": "ChessMango_v1"
		},
		{
			"subreddit": "Ubuntu",
			"title": "Gnome versus Plasma",
			"id": "ltpvb7",
			"author": "Impoous221rtanceri"
		},
		{
			"subreddit": "unixporn",
			"title": "[Plasma] Comfy KDE.",
			"id": "lvxili",
			"author": "virajag007"
		},
		{
			"subreddit": "kde",
			"title": "Hindi Language in Plasma and KDE applications",
			"id": "lwmw43",
			"author": "LordRishav"
		},
		{
			"subreddit": "kde",
			"title": "Black Text on Dark Background for leave/shutdown tabs. I know it's a theme problem, but what is the file/setting I can change to fix this? Thank you! [Plasma=5.21.1, Kde=5.79.0, Qt=5.15.2, Kernel=5.11.2-arch1-1, GPU=RX580]",
			"id": "luic1p",
			"author": "tvidal"
		},
		{
			"subreddit": "linuxmemes",
			"title": "holywar",
			"id": "lx2gcx",
			"author": "Defiant_Safe"
		},
		{
			"subreddit": "kde",
			"title": "Want to create a KDE App? Here's a tour of the tutorial to Kirigami, the framework to create convergent apps!",
			"id": "lwuyt7",
			"author": "veggero"
		},
		{
			"subreddit": "Ubuntu",
			"title": "Finally made the full time switch, budgie is amazing.",
			"id": "lu1x39",
			"author": "FlirtatiousMule"
		},
		{
			"subreddit": "kde",
			"title": "This week in KDE: a little bit of everything \u2013 Adventures in Linux and KDE",
			"id": "lth05z",
			"author": "Modelmat"
		},
		{
			"subreddit": "kde",
			"title": "Weird application launcher",
			"id": "lxgfg8",
			"author": "haxguru"
		},
		{
			"subreddit": "ManjaroLinux",
			"title": "How can I make my bottom panel rounded like this official kde 5.21 video ?",
			"id": "lvv43u",
			"author": "Bu_Hasan"
		},
		{
			"subreddit": "linuxmint",
			"title": "This is the best look I've achieved with mint xfce. After messing KDE and uninstalling it, I'm pretty proud of what i've achieved. Xfce can be quite beautiful with some tweaks.",
			"id": "lu2gb8",
			"author": "pelopidas190e"
		},
		{
			"subreddit": "linux4noobs",
			"title": "Looking for suggestions to an alternative mac OS theme. New to linux and this is the first theme I installed. Looking to change it up and see what is out there.",
			"id": "lve4ud",
			"author": "jeramyajones"
		},
		{
			"subreddit": "freebsd",
			"title": "What desktops manager for old pc",
			"id": "lwzww8",
			"author": "imaddz13"
		},
		{
			"subreddit": "linuxquestions",
			"title": "The Most \"Linux\" Desktop?",
			"id": "lxb5jr",
			"author": "feldomatic"
		},
		{
			"subreddit": "kde",
			"title": "KDE trying to connect to fast-dot-wistia-dot-com?",
			"id": "lwwl8b",
			"author": "theamazingrand0"
		},
		{
			"subreddit": "linuxquestions",
			"title": "Lenovo IdeaPad and Linux Question",
			"id": "lx7ymj",
			"author": "booknerdcarp"
		},
		{
			"subreddit": "kde",
			"title": "WHY do I need to aim for 1pixel border to resize the window in KDE?!",
			"id": "lsx3bb",
			"author": "illevens"
		},
		{
			"subreddit": "ManjaroLinux",
			"title": "Any fix for this Bug ?",
			"id": "lyaj93",
			"author": "1_7xr"
		},
		{
			"subreddit": "Fedora",
			"title": "Couple of novice questions",
			"id": "lx12qq",
			"author": "Unhyper"
		},
		{
			"subreddit": "FindMeADistro",
			"title": "I need to stop distro hopping.",
			"id": "ltomd3",
			"author": "krishna_hari_47"
		},
		{
			"subreddit": "ValveIndex",
			"title": "Steam VR Linux random periods where head movement becomes floaty, almost delayed",
			"id": "lxne14",
			"author": "That_Poo_Head"
		},
		{
			"subreddit": "kde",
			"title": "Can not select text in terminal. Flickering mouse cursor.",
			"id": "lt472q",
			"author": "CaptainFoyle"
		},
		{
			"subreddit": "kde",
			"title": "State of Plasma sandboxing and other security features?",
			"id": "lwnnka",
			"author": "studious_diver"
		},
		{
			"subreddit": "kde",
			"title": "SDDM security issue: I can see the session briefly for some time before unlocking",
			"id": "lvxfe5",
			"author": "apoorvpotnis"
		},
		{
			"subreddit": "linuxquestions",
			"title": "Risks with adding newer repos to older Ubuntu?",
			"id": "lw3wf6",
			"author": "numberonebuddy"
		}
	],
	"kde,krita": [
		{
			"subreddit": "flatpak",
			"title": "Create flatpak file from installed applicaton from flathub using flatpak build-bundle",
			"id": "lxxnkx",
			"author": "Glad_Beginning_1537"
		},
		{
			"subreddit": "kde",
			"title": "Ram\u00f3n Miranda painted a landscape live at KDE's FOSDEM booth. Here is the video of that session in which he demonstrates techniques and the new set of impressionist brushes he designed for Krita.",
			"id": "lwzh5y",
			"author": "Bro666"
		},
		{
			"subreddit": "krita",
			"title": "Ram\u00f3n Miranda painted a landscape live at KDE's FOSDEM booth. Here is the video of that session in which he demonstrates techniques and the new set of impressionist brushes he designed for Krita.",
			"id": "lwzgu5",
			"author": "Bro666"
		},
		{
			"subreddit": "libredesign",
			"title": "Ram\u00f3n Miranda painted a landscape live at KDE's FOSDEM booth. Here is the video of that session in which he demonstrates techniques and the new set of impressionist brushes he designed for Krita.",
			"id": "lwzhq3",
			"author": "Bro666"
		}
	]
}
